%YAML 1.1
%TAG !u! tag:unity3d.com,2011:
--- !u!1045 &1
EditorBuildSettings:
  m_ObjectHideFlags: 0
  serializedVersion: 2
  m_Scenes:
  - enabled: 1
    path: Assets/Scenes/MainMenu.unity
    guid: 91f2143ffaa6de2498cfedd8a40d725d
  - enabled: 1
    path: Assets/Scenes/MainScene.unity
    guid: 70f485983a20d104f8b4d703c282ab01
  m_configObjects: {}
